{
  "project_info": {
    "project_number": "135098280607",
    "firebase_url": "https://notkaraox.firebaseio.com",
    "project_id": "notkaraox",
    "storage_bucket": "notkaraox.appspot.com"
  },
  "client": [
    {
      "client_info": {
        "mobilesdk_app_id": "1:135098280607:android:2081504e534809a9",
        "android_client_info": {
          "package_name": "KaraoX.KaraoX"
        }
      },
      "oauth_client": [
        {
          "client_id": "135098280607-9e66106mouainatplfti831qfchg78ee.apps.googleusercontent.com",
          "client_type": 3
        },
        {
          "client_id": "135098280607-9e66106mouainatplfti831qfchg78ee.apps.googleusercontent.com",
          "client_type": 3
        }
      ],
      "api_key": [
        {
          "current_key": "AIzaSyA4WqnMn7ofc4qRxXZ1esJSaaTK-ORSc9s"
        }
      ],
      "services": {
        "analytics_service": {
          "status": 1
        },
        "appinvite_service": {
          "status": 1,
          "other_platform_oauth_client": []
        },
        "ads_service": {
          "status": 2
        }
      }
    },
    {
      "client_info": {
        "mobilesdk_app_id": "1:135098280607:android:6c20f5d5ef4d439a",
        "android_client_info": {
          "package_name": "NotKaraoX.NotKaraoX"
        }
      },
      "oauth_client": [
        {
          "client_id": "135098280607-9e66106mouainatplfti831qfchg78ee.apps.googleusercontent.com",
          "client_type": 3
        },
        {
          "client_id": "135098280607-9e66106mouainatplfti831qfchg78ee.apps.googleusercontent.com",
          "client_type": 3
        }
      ],
      "api_key": [
        {
          "current_key": "AIzaSyA4WqnMn7ofc4qRxXZ1esJSaaTK-ORSc9s"
        }
      ],
      "services": {
        "analytics_service": {
          "status": 1
        },
        "appinvite_service": {
          "status": 1,
          "other_platform_oauth_client": []
        },
        "ads_service": {
          "status": 2
        }
      }
    }
  ],
  "configuration_version": "1"
}